[
	{
		"id": 1,
		"title": "Odpovědět na inzerát.",
		"done": true
	},
	{
		"id": 2,
		"title": "Nějak se poprat s úkolem.",
		"done": false
	},
	{
		"id": 3,
		"title": "Na pohovoru se tvářit, že vím, co je to React.",
		"done": false
	},
	{
		"id": 4,
		"title": "Až se mě budou ptát co jsou to Hooky, dělat jako by nic.",
		"done": false
	}
]
